{
  "project_info": {
    "project_number": "922093738452",
    "project_id": "phtp-33931",
    "storage_bucket": "phtp-33931.appspot.com"
  },
  "client": [
    {
      "client_info": {
        "mobilesdk_app_id": "1:922093738452:android:8920270ccc65a992ce9e41",
        "android_client_info": {
          "package_name": "com.example.phtp_mobile"
        }
      },
      "oauth_client": [
        {
          "client_id": "922093738452-e9er1qcdiq96j93tep05qrturt827nef.apps.googleusercontent.com",
          "client_type": 3
        }
      ],
      "api_key": [
        {
          "current_key": "AIzaSyDYnuln6PCwejI12RYXMZZjZkNPJTASuuc"
        }
      ],
      "services": {
        "appinvite_service": {
          "other_platform_oauth_client": [
            {
              "client_id": "922093738452-e9er1qcdiq96j93tep05qrturt827nef.apps.googleusercontent.com",
              "client_type": 3
            }
          ]
        }
      }
    }
  ],
  "configuration_version": "1"
}